EABaseConfig.cmake.in ce5d94474fdc800cbbdc169580fb346ea962c1623c2195f4d3b1c07d2fbda6ff
cmake 3.24.0
features core
fix_cmake_install.patch 3156719e6a6c09df7a10d2c4aed31b28e7d387e8371ccc9362beb3daeda0aa6f
portfile.cmake dad5c32f75b07cbb180200aa92dfea01d484f25d456df7d4e5ae428f55ebd0bf
ports.cmake b4accc7941cb5ff993e1a0434cea6df3e99331137294958437b2b86b7216e2e2
post_build_checks 2
powershell 7.2.5
triplet x86-windows
triplet_abi 3e71dd1d4afa622894ae367adbbb1ecbd42c57c51428a86b675fa1c8cad3a581-c0600b35e024ce0485ed253ef5419f3686f7257cfb58cb6a24febcb600fc4b4c-8190d16d6ca2ece7ebbe2442840421d43be90853
vcpkg.json 521838428e1d24bdc0ce1a4a4e6f3a7345b1437f9b0ac0ce127fabc0465781ab
vcpkg_check_linkage 2236edfea13af20524c17d73214e0e5111bf1c13a2fc46c7f2912a46abd0c1a8
vcpkg_configure_cmake b44bf0133a55cdd4b92004fd17cacc8b4bea8febda443bac84174ab19ac22c73
vcpkg_copy_pdbs d57e4f196c82dc562a9968c6155073094513c31e2de475694143d3aa47954b1c
vcpkg_fixup_cmake_targets 7f777f83ca76540ed573d986ee53d1b3da1e45f49f3856c44c0773fec71cb49f
vcpkg_from_git 0aab20e34e84d52ba4763f009e539bfa8f418c41c918c8cf700156f1a8551a10
vcpkg_from_github b743742296a114ea1b18ae99672e02f142c4eb2bef7f57d36c038bedbfb0502f
vcpkg_install_cmake 6119891902c6ad9e9ed1d9b073eb9969159b553f9d6f5bee529cde91769355ff
